[
    {
        "id": "11",
        "title": "Polsterecke Kessy Stoff KOINOR 1300 Seneca/Rossini (BB 273x156 cm) KOINOR",
        "description": "Die Polsterecke Kessy zeigt sich in einem hellen und freundlichen Design. Sie umfasst ein 2,5-sitziges Sofa mit Armlehne, vorstehend links und eine Liege mit Armteil, vorstehend rechts. Die F\u00fc\u00dfe sind matt satiniert und bieten einen festen Stand. Allgemein erhalten Sie ein angenehmes und komfortables Sitzerlebnis. Diese Ausf\u00fchrung kommt ohne Funktionsarmlehnen, Metallkufe, Nackenst\u00fctze und Kissen. Bezugsmaterial: 85% Polyester, 15% Viskose Bei Fragen zum Produkt oder weiteren Konfigurationsw\u00fcnschen beraten wir Sie gerne pers\u00f6nlich montags bis freitags von 8:00 bis 20:00 Uhr unter 02302 985 6662 oder Sie schreiben uns mithilfe des Formulars eine E-Mail. \n        ",
        "google_product_category": "M\u00f6bel",
        "product_type": "M\u00f6bel > Polsterm\u00f6bel > Polsterecken",
        "link": "https://www.ostermann.de/polsterecke-kessy/100015/moebel/polstermoebel/polsterecken/1300-seneca/rossini/koinor?sPartner=Googleshopping?&deeplink=100015",
        "image_link": "https://www.ostermann.de/media/image/1c/3c/89/0100015-001_600x600.jpg",
        "additional_image_link": null,
        "condition": "new",
        "availability": "in stock",
        "price": "3027,00",
        "sale_price": "1969,00",
        "brand": "KOINOR",
        "gtin": null,
        "mpn": "1300 Seneca/Rossini",
        "adwords_grouping": "29",
        "custom_label_0": "29",
        "custom_label_1": "21",
        "custom_label_2": "416",
        "custom_label_3": "G",
        "custom_label_4": null,
        "color": null,
        "material": "Stoff",
        "energy_efficiency_class": null,
        "shipping_weight": "115,00",
        "shipping": null,
        "pubDate": "Wed, 25 Sep 2019 09:57:07 CEST"
    },
    {
        "id": "22",
        "title": "Polsterecke Kessy Stoff KOINOR 1300 Seneca/Rossini (BB 156x273 cm) KOINOR",
        "description": "Die Polsterecke Kessy zeigt sich in einem hellen und freundlichen Design. Sie umfasst ein 2,5-sitziges Sofa mit Armlehne, vorstehend rechts und eine Liege mit Armteil, vorstehend links. Die F\u00fc\u00dfe sind matt satiniert und bieten einen festen Stand. Allgemein erhalten Sie ein angenehmes und komfortables Sitzerlebnis. Diese Ausf\u00fchrung kommt ohne Funktionsarmlehnen, Metallkufe, Nackenst\u00fctze und Kissen. Bezugsmaterial: 85% Polyester, 15% Viskose Bei Fragen zum Produkt oder weiteren Konfigurationsw\u00fcnschen beraten wir Sie gerne pers\u00f6nlich montags bis freitags von 8:00 bis 20:00 Uhr unter 02302 985 6662 oder Sie schreiben uns mithilfe des Formulars eine E-Mail. \n        ",
        "google_product_category": "M\u00f6bel",
        "product_type": "M\u00f6bel > Polsterm\u00f6bel > Polsterecken",
        "link": "https://www.ostermann.de/polsterecke-kessy/100019/moebel/polstermoebel/polsterecken/1300-seneca/rossini/koinor?sPartner=Googleshopping?&deeplink=100019",
        "image_link": "https://www.ostermann.de/media/image/cc/bb/ed/0100019-001_600x600.jpg",
        "additional_image_link": null,
        "condition": "new",
        "availability": "in stock",
        "price": "3027,00",
        "sale_price": "1969,00",
        "brand": "KOINOR",
        "gtin": null,
        "mpn": "1300 Seneca/Rossini",
        "adwords_grouping": "29",
        "custom_label_0": "29",
        "custom_label_1": "21",
        "custom_label_2": "416",
        "custom_label_3": "G",
        "custom_label_4": null,
        "color": null,
        "material": "Stoff",
        "energy_efficiency_class": null,
        "shipping_weight": "115,00",
        "shipping": null,
        "pubDate": "Wed, 25 Sep 2019 09:57:07 CEST"
    },
    {
        "id": "33",
        "title": "Sitzbank JOOP! 8145-33 C Leder schwarz JOOP! 22)8145 33 C (BHT 203x90x74 cm) JOOP!",
        "description": "Die Sitzbank JOOP! 5148-33 C \u00fcberzeugt durch ihr schlichtes und dunkles Design. Sie besteht aus Echtleder in der Farbe Teer und kommt mit einem Untergestell in poliertem Edelstahl. Sie bietet Ihnen ein angenehmes Sitzerlebnis und l\u00e4sst sich in verschiedene Einrichtungsstile integrieren. Bei Fragen zum Produkt oder weiteren Konfigurationsw\u00fcnschen beraten wir Sie gerne pers\u00f6nlich montags bis freitags von 8:00 bis 20:00 Uhr unter 02302 985 6660 oder Sie schreiben uns mithilfe des Formulars eine E-Mail. \n        ",
        "google_product_category": "M\u00f6bel",
        "product_type": "M\u00f6bel > St\u00fchle & B\u00e4nke > B\u00e4nke",
        "link": "https://www.ostermann.de/sitzbank-joop-8145-33-c/100023/moebel/stuehle-baenke/baenke/22-8145-33-c/joop?sPartner=Googleshopping?&deeplink=100023",
        "image_link": "https://www.ostermann.de/media/image/48/d9/1a/0100023-001_600x600.jpg",
        "additional_image_link": null,
        "condition": "new",
        "availability": "in stock",
        "price": "1799,00",
        "sale_price": null,
        "brand": "JOOP!",
        "gtin": null,
        "mpn": "22)8145 33 C",
        "adwords_grouping": "20",
        "custom_label_0": "20",
        "custom_label_1": "91",
        "custom_label_2": "51",
        "custom_label_3": "G",
        "custom_label_4": null,
        "color": "schwarz",
        "material": "Leder",
        "energy_efficiency_class": null,
        "shipping_weight": "40,00",
        "shipping": null,
        "pubDate": "Thu, 17 Oct 2019 10:22:31 CEST"
    },
    {
        "id": "44",
        "title": "Armlehnstuhl JOOP! 8144 Leder schwarz JOOP! 22)32C-8144 (BHT 55x90x68 cm) JOOP!",
        "description": "Der Armlehnstuhl JOOP! 8144 zeigt sich in einem schlichten und dunklen Design. Er zeigt sich in Echtleder in der Farbe Teer und kommt mit praktischen Armlehnen. Das Untergestell besteht aus poliertem Edelstahl und sorgt f\u00fcr einen festen Stand. Bei Fragen zum Produkt oder weiteren Konfigurationsw\u00fcnschen beraten wir Sie gerne pers\u00f6nlich montags bis freitags von 8:00 bis 20:00 Uhr unter 02302 985 6660 oder Sie schreiben uns mithilfe des Formulars eine E-Mail. \n        ",
        "google_product_category": "M\u00f6bel",
        "product_type": "M\u00f6bel > St\u00fchle & B\u00e4nke > Esszimmerst\u00fchle",
        "link": "https://www.ostermann.de/armlehnstuhl-joop-8144/100029/moebel/stuehle-baenke/esszimmerstuehle/22-32c-8144/joop?sPartner=Googleshopping?&deeplink=100029",
        "image_link": "https://www.ostermann.de/media/image/48/76/24/0100029-001_600x600.jpg",
        "additional_image_link": null,
        "condition": "new",
        "availability": "in stock",
        "price": "649,00",
        "sale_price": null,
        "brand": "JOOP!",
        "gtin": null,
        "mpn": "22)32C-8144",
        "adwords_grouping": "20",
        "custom_label_0": "20",
        "custom_label_1": "91",
        "custom_label_2": "52",
        "custom_label_3": "G",
        "custom_label_4": null,
        "color": "schwarz",
        "material": "Leder",
        "energy_efficiency_class": null,
        "shipping_weight": "20,00",
        "shipping": null,
        "pubDate": "Thu, 17 Oct 2019 10:22:31 CEST"
    },
    {
        "id": "55",
        "title": "Polsterstuhl JOOP! 8144 Leder schwarz JOOP! 22)31C-8144 31 C (BHT 52x90x68 cm) JOOP!",
        "description": "Dessin: Leder 22 Longru teer Echt Leder ohne Armlehnen - 31 C Untergestell Edelstahl poliert Bei Fragen zum Produkt oder weiteren Konfigurationsw\u00fcnschen beraten wir Sie gerne pers\u00f6nlich montags bis freitags von 8:00 bis 20:00 Uhr unter 02302 985 6660 oder Sie schreiben uns mithilfe des Formulars eine E-Mail. \n        ",
        "google_product_category": "M\u00f6bel",
        "product_type": "M\u00f6bel > St\u00fchle & B\u00e4nke > Esszimmerst\u00fchle",
        "link": "https://www.ostermann.de/polsterstuhl-joop-8144/100032/moebel/stuehle-baenke/esszimmerstuehle/22-31c-8144-31-c/joop?sPartner=Googleshopping?&deeplink=100032",
        "image_link": "https://www.ostermann.de/media/image/b6/1c/c8/0100032-001_600x600.jpg",
        "additional_image_link": null,
        "condition": "new",
        "availability": "in stock",
        "price": "599,00",
        "sale_price": null,
        "brand": "JOOP!",
        "gtin": null,
        "mpn": "22)31C-8144 31 C",
        "adwords_grouping": "20",
        "custom_label_0": "20",
        "custom_label_1": "91",
        "custom_label_2": "52",
        "custom_label_3": "G",
        "custom_label_4": null,
        "color": "schwarz",
        "material": "Leder",
        "energy_efficiency_class": null,
        "shipping_weight": "0,00",
        "shipping": null,
        "pubDate": "Thu, 17 Oct 2019 10:22:31 CEST"
    },
    {
        "id": "66",
        "title": "Wohnwand Witlake Corato Massivholz braun Witlake VZ 0003 (BHT 329,6x208,4x50,6 cm) Witlake",
        "description": "Ausf. europ. Wildeiche massiv, soft geb\u00fcrstet Front mit Hirnholz-Einsatz Front-Akzent: Mattglas magnolie >> Akzent wahlweise lt. Liste Vitrinen-Glas-Akzent gegen Mehpreis >> ohne Beleuchtung und Zubeh\u00f6r >> Ma\u00dfe ca. Montagema\u00dfe Bei Fragen zum Produkt oder weiteren Konfigurationsw\u00fcnschen beraten wir Sie gerne pers\u00f6nlich montags bis freitags von 8:00 bis 20:00 Uhr unter 02302 985 6660 oder Sie schreiben uns mithilfe des Formulars eine E-Mail. \n        ",
        "google_product_category": "M\u00f6bel",
        "product_type": "M\u00f6bel > Schr\u00e4nke & Regale > Wohnw\u00e4nde",
        "link": "https://www.ostermann.de/wohnwand-witlake-corato/100034/moebel/schraenke-regale/wohnwaende/vz-0003/witlake?sPartner=Googleshopping?&deeplink=100034",
        "image_link": "https://www.ostermann.de/media/image/98/90/5c/0100034-001_600x600.jpg",
        "additional_image_link": null,
        "condition": "new",
        "availability": "in stock",
        "price": "5890,00",
        "sale_price": "3699,00",
        "brand": "Witlake",
        "gtin": null,
        "mpn": "VZ 0003",
        "adwords_grouping": "10",
        "custom_label_0": "10",
        "custom_label_1": "14",
        "custom_label_2": "104",
        "custom_label_3": "G",
        "custom_label_4": null,
        "color": "braun",
        "material": "Massivholz",
        "energy_efficiency_class": null,
        "shipping_weight": "210,00",
        "shipping": null,
        "pubDate": "Wed, 25 Sep 2019 09:57:07 CEST"
    },
    {
        "id": "77",
        "title": "Sideboard Witlake Corato Massivholz braun Witlake 2750 (BHT 171,4x82,8x41 cm) Witlake",
        "description": "Das Sideboard Corato von witlake \u00fcberzeugt mit einer hochwertigen Verarbeitung im Wohnbereich. Die nat\u00fcrliche Ausf\u00fchrung in massiver, europ\u00e4ischer Wildeiche und soft geb\u00fcrsteter Front mit Hirnholz-Einsatz sorgt f\u00fcr warme und gem\u00fctliche Akzente. Das Sideboard bietet ausreichend Stauraum hinter zwei Holzt\u00fcren, einer Holz-/Glast\u00fcr und einem Schubkasten. Hinter den T\u00fcren verbergen sich zwei B\u00f6den, die den Stauraum weiter unterteilen. Ohne Beleuchtung und Zubeh\u00f6r. Bei Fragen zum Produkt oder weiteren Konfigurationsw\u00fcnschen beraten wir Sie gerne pers\u00f6nlich montags bis freitags von 8:00 bis 20:00 Uhr unter 02302 985 6660 oder Sie schreiben uns mithilfe des Formulars eine E-Mail. \n        ",
        "google_product_category": "M\u00f6bel",
        "product_type": "M\u00f6bel > Schr\u00e4nke & Regale > Sideboards",
        "link": "https://www.ostermann.de/sideboard-witlake-corato/100040/moebel/schraenke-regale/sideboards/2750/witlake?sPartner=Googleshopping?&deeplink=100040",
        "image_link": "https://www.ostermann.de/media/image/8e/4e/18/0100040-001_600x600.jpg",
        "additional_image_link": null,
        "condition": "new",
        "availability": "in stock",
        "price": "2863,00",
        "sale_price": "1799,00",
        "brand": "Witlake",
        "gtin": null,
        "mpn": "2750",
        "adwords_grouping": "10",
        "custom_label_0": "10",
        "custom_label_1": "21",
        "custom_label_2": "104",
        "custom_label_3": "G",
        "custom_label_4": null,
        "color": "braun",
        "material": "Massivholz",
        "energy_efficiency_class": null,
        "shipping_weight": "120,00",
        "shipping": null,
        "pubDate": "Wed, 25 Sep 2019 09:57:07 CEST"
    },
    {
        "id": "88",
        "title": "Becherset Wave Glas transparent LEONARDO 010928 (BHT 25,7x17,5x16,5 cm) LEONARDO",
        "description": "12 teilig 6 Gl\u00e4ser ca. H\u00f6he 13 cm 6 Gl\u00e4ser ca. H\u00f6he 9 cm Bei Fragen zum Produkt oder weiteren Konfigurationsw\u00fcnschen beraten wir Sie gerne pers\u00f6nlich montags bis freitags von 8:00 bis 20:00 Uhr unter 02302 985 6668 oder Sie schreiben uns mithilfe des Formulars eine E-Mail. \n        ",
        "google_product_category": "M\u00f6bel",
        "product_type": "Accessoires > Gedeckter Tisch > Gl\u00e4ser",
        "link": "https://www.ostermann.de/becherset-wave/100046/accessoires/gedeckter-tisch/glaeser/010928/leonardo?sPartner=Googleshopping?&deeplink=100046",
        "image_link": "https://www.ostermann.de/media/image/e5/2a/7f/0100046-001_600x600.jpg",
        "additional_image_link": null,
        "condition": "new",
        "availability": "in stock",
        "price": "19,95",
        "sale_price": "7,90",
        "brand": "LEONARDO",
        "gtin": "4002541109286",
        "mpn": "010928",
        "adwords_grouping": "92",
        "custom_label_0": "92",
        "custom_label_1": "12",
        "custom_label_2": "666",
        "custom_label_3": "P",
        "custom_label_4": null,
        "color": "transparent",
        "material": "Glas",
        "energy_efficiency_class": null,
        "shipping_weight": "3,20",
        "shipping": null,
        "pubDate": "Wed, 25 Sep 2019 09:57:07 CEST"
    },
    {
        "id": "99",
        "title": "Topfset Function 4 Cromargan 18/10 rot WMF 0760056380 WMF",
        "description": "4 teilig bestehend aus: Bratentopf 20 cm Fleischtopf 16, 20 und 24 cm TransTherm Allherdboden WMF Bei Fragen zum Produkt oder weiteren Konfigurationsw\u00fcnschen beraten wir Sie gerne pers\u00f6nlich montags bis freitags von 8:00 bis 20:00 Uhr unter 02302 985 6668 oder Sie schreiben uns mithilfe des Formulars eine E-Mail. \n        ",
        "google_product_category": "M\u00f6bel",
        "product_type": "Accessoires > Haushalt & K\u00fcche > T\u00f6pfe & Pfannen",
        "link": "https://www.ostermann.de/topfset-function-4/100050/accessoires/haushalt-kueche/toepfe-pfannen/0760056380/wmf?sPartner=Googleshopping?&deeplink=100050",
        "image_link": "https://www.ostermann.de/media/image/46/18/72/0100050-001_600x600.jpg",
        "additional_image_link": null,
        "condition": "new",
        "availability": "in stock",
        "price": "479,00",
        "sale_price": "399,00",
        "brand": "WMF",
        "gtin": "4000530701510",
        "mpn": "0760056380",
        "adwords_grouping": "92",
        "custom_label_0": "92",
        "custom_label_1": "17",
        "custom_label_2": "51",
        "custom_label_3": "P",
        "custom_label_4": null,
        "color": "rot",
        "material": "Cromargan 18/10",
        "energy_efficiency_class": null,
        "shipping_weight": "0,00",
        "shipping": null,
        "pubDate": "Wed, 25 Sep 2019 09:57:07 CEST"
    },
    {
        "id": "1010",
        "title": "Sofa 2,5 Sitzer Kessy Stoff KOINOR 1300 Seneca/Rossini (BHT 204x86x86 cm) KOINOR",
        "description": "Modern und klassisch zugleich - so \u00fcberzeugt dieses hochwertige, 2,5-sitzige Sofa Kessy. Ausgestattet mit einem edlen Echtlederbezug in Impression 97 bietet das Sofa einen gem\u00fctlichen R\u00fcckzugsort, an dem Sie die Seele baumeln lassen k\u00f6nnen. Durch die legere Polsterung ist f\u00fcr den n\u00f6tigen Sitz- und Liegekomfort gesorgt. Au\u00dferdem ist der R\u00fccken des Sofas echt bezogen, sodass dieses auch frei im Raum positioniert werden kann. Die erg\u00e4nzenden Funktionsarmlehnen und Kissen sowie die Metallkufen sind separat erh\u00e4ltlich. Bezugsmaterial: 85% Polyester, 15% Viskose Bei Fragen zum Produkt oder weiteren Konfigurationsw\u00fcnschen beraten wir Sie gerne pers\u00f6nlich montags bis freitags von 8:00 bis 20:00 Uhr unter 02302 985 6662 oder Sie schreiben uns mithilfe des Formulars eine E-Mail. \n        ",
        "google_product_category": "M\u00f6bel",
        "product_type": "M\u00f6bel > Polsterm\u00f6bel > Einzelsofas",
        "link": "https://www.ostermann.de/sofa-2-5-sitzer-kessy/100060/moebel/polstermoebel/einzelsofas/1300-seneca/rossini/koinor?sPartner=Googleshopping?&deeplink=100060",
        "image_link": "https://www.ostermann.de/media/image/f6/9b/86/0100060-001_600x600.jpg",
        "additional_image_link": null,
        "condition": "new",
        "availability": "in stock",
        "price": "1670,00",
        "sale_price": "1104,00",
        "brand": "KOINOR",
        "gtin": null,
        "mpn": "1300 Seneca/Rossini",
        "adwords_grouping": "29",
        "custom_label_0": "29",
        "custom_label_1": "21",
        "custom_label_2": "416",
        "custom_label_3": "G",
        "custom_label_4": null,
        "color": "rot",
        "material": "Stoff",
        "energy_efficiency_class": null,
        "shipping_weight": "55,00",
        "shipping": null,
        "pubDate": "Wed, 25 Sep 2019 09:57:07 CEST"
    },
    {
        "id": "1111",
        "title": "Sofa 2 Sitzer Kessy Stoff KOINOR 1300 Seneca/Rossini (BHT 174x86x86 cm) KOINOR",
        "description": "Modern und klassisch zugleich - so \u00fcberzeugt dieses hochwertige, 2-sitzige Sofa Kessy. Ausgestattet mit einem edlen Echtlederbezug in Impression 97 bietet das Sofa einen gem\u00fctlichen R\u00fcckzugsort, an dem Sie die Seele baumeln lassen k\u00f6nnen. Durch die legere Polsterung ist f\u00fcr den n\u00f6tigen Sitz- und Liegekomfort gesorgt. Au\u00dferdem ist der R\u00fccken des Sofas echt bezogen, sodass dieses auch frei im Raum positioniert werden kann.Die erg\u00e4nzenden Funktionsarmlehnen und Kissen sind separat erh\u00e4ltlich. Bezugsmaterial: 85% Polyester, 15% Viskose Bei Fragen zum Produkt oder weiteren Konfigurationsw\u00fcnschen beraten wir Sie gerne pers\u00f6nlich montags bis freitags von 8:00 bis 20:00 Uhr unter 02302 985 6662 oder Sie schreiben uns mithilfe des Formulars eine E-Mail. \n        ",
        "google_product_category": "M\u00f6bel",
        "product_type": "M\u00f6bel > Polsterm\u00f6bel > Einzelsofas",
        "link": "https://www.ostermann.de/sofa-2-sitzer-kessy/100073/moebel/polstermoebel/einzelsofas/1300-seneca/rossini/koinor?sPartner=Googleshopping?&deeplink=100073",
        "image_link": "https://www.ostermann.de/media/image/7a/1c/c7/0100073-001_600x600.jpg",
        "additional_image_link": null,
        "condition": "new",
        "availability": "in stock",
        "price": "1513,00",
        "sale_price": "1004,00",
        "brand": "KOINOR",
        "gtin": null,
        "mpn": "1300 Seneca/Rossini",
        "adwords_grouping": "29",
        "custom_label_0": "29",
        "custom_label_1": "21",
        "custom_label_2": "416",
        "custom_label_3": "G",
        "custom_label_4": null,
        "color": "rot",
        "material": "Stoff",
        "energy_efficiency_class": null,
        "shipping_weight": "50,00",
        "shipping": null,
        "pubDate": "Wed, 25 Sep 2019 09:57:07 CEST"
    },
    {
        "id": "1212",
        "title": "Polsterecke Mondo Atla Stoff rot MONDO 4577+4576+7293 Atla (BBH 291x220x85 cm) MONDO",
        "description": "Die Polsterecke Atla von MONDO erscheint in einem ansprechenden Design. Sie besteht aus rotem Stoff und umfasst einen 1,5-Sitzer vorstehend links, einen 1,5-Sitzer medium und eine Umbauecke vorstehend rechts. Durch den Federkern im Sitz erhalten Sie ein bequemes und entspannendes Sitzerlebnis. Zudem kommt die Polsterecke inklusive Kopfteilverstellung. Ein sch\u00f6ner Metallfu\u00df sorgt f\u00fcr einen festen Stand. R\u00fccken echt bezogen. Bezugsmaterial: 100% Polyester Bei Fragen zum Produkt oder weiteren Konfigurationsw\u00fcnschen beraten wir Sie gerne pers\u00f6nlich montags bis freitags von 8:00 bis 20:00 Uhr unter 02302 985 6660 oder Sie schreiben uns mithilfe des Formulars eine E-Mail. \n        ",
        "google_product_category": "M\u00f6bel",
        "product_type": "M\u00f6bel > Polsterm\u00f6bel > Polsterecken",
        "link": "https://www.ostermann.de/polsterecke-mondo-atla/100102/moebel/polstermoebel/polsterecken/4577-4576-7293-atla/mondo?sPartner=Googleshopping?&deeplink=100102",
        "image_link": "https://www.ostermann.de/media/image/2a/44/a5/0100102-001_600x600.jpg",
        "additional_image_link": null,
        "condition": "new",
        "availability": "in stock",
        "price": "2387,00",
        "sale_price": "1799,00",
        "brand": "MONDO",
        "gtin": null,
        "mpn": "4577+4576+7293 Atla",
        "adwords_grouping": "20",
        "custom_label_0": "20",
        "custom_label_1": "12",
        "custom_label_2": "226",
        "custom_label_3": "G",
        "custom_label_4": null,
        "color": "rot",
        "material": "Stoff",
        "energy_efficiency_class": null,
        "shipping_weight": "130,00",
        "shipping": null,
        "pubDate": "Thu, 17 Oct 2019 10:02:30 CEST"
    },
    {
        "id": "1313",
        "title": "Kommode JOOP! Systems grau JOOP! 26075 (BHT 56x143x45 cm) JOOP!",
        "description": "Bereichern Sie Ihren Wohnbereich mit dieser hochwertigen Kommode Systems der modischen Marke JOOP!. Sorgen Sie f\u00fcr Platz und Ordnung mit den vielen F\u00e4chern und Abstellm\u00f6glichkeiten der Kommode und genie\u00dfen Sie die Blicke Ihrer Freunde und Verwandten. Die Kommode Systems erschafft mit seiner grauen Anthrazit Lackierung eine angenehme wohlige Atmosph\u00e4re. Die hochwertigen Schlaufen, mit denen sich die Schubladen ganz bequem \u00f6ffnen lassen, bestehen aus einem stilvollen Leder. Bei Fragen zum Produkt oder weiteren Konfigurationsw\u00fcnschen beraten wir Sie gerne pers\u00f6nlich montags bis freitags von 8:00 bis 20:00 Uhr unter 02302 985 6661 oder Sie schreiben uns mithilfe des Formulars eine E-Mail. \n        ",
        "google_product_category": "M\u00f6bel",
        "product_type": "M\u00f6bel > Schr\u00e4nke & Regale > Kommoden",
        "link": "https://www.ostermann.de/kommode-joop-systems/100125/moebel/schraenke-regale/kommoden/26075/joop?sPartner=Googleshopping?&deeplink=100125",
        "image_link": "https://www.ostermann.de/media/image/84/35/e7/0100125-001_600x600.jpg",
        "additional_image_link": null,
        "condition": "new",
        "availability": "in stock",
        "price": "1847,00",
        "sale_price": "1549,00",
        "brand": "JOOP!",
        "gtin": null,
        "mpn": "26075",
        "adwords_grouping": "40",
        "custom_label_0": "40",
        "custom_label_1": "51",
        "custom_label_2": "4",
        "custom_label_3": "G",
        "custom_label_4": null,
        "color": "grau",
        "material": "Stoff",
        "energy_efficiency_class": null,
        "shipping_weight": "0,00",
        "shipping": null,
        "pubDate": "Thu, 17 Oct 2019 10:22:31 CEST"
    },
    {
        "id": "1414",
        "title": "Highboard now! Easy wei\u00df now! by h\u00fclsta 980063 (BHT 128x128x44,8 cm) now! by h\u00fclsta",
        "description": "Bereichern Sie Ihren Wohnraum mit dem Highboard now! Easy. Dieses in Lack reinwei\u00df gehaltene Highboard \u00fcberzeugt durch seine moderne Optik, die gut in viele Einrichtungsstile passt. Drei Holzt\u00fcren sowie drei Schubladen sorgen f\u00fcr reichlich Stauraum. Inklusive H\u00e4ngebeschl\u00e4ge. Bei Fragen zum Produkt oder weiteren Konfigurationsw\u00fcnschen beraten wir Sie gerne pers\u00f6nlich montags bis freitags von 8:00 bis 20:00 Uhr unter 02302 985 6662 oder Sie schreiben uns mithilfe des Formulars eine E-Mail. \n        ",
        "google_product_category": "M\u00f6bel",
        "product_type": "M\u00f6bel > Schr\u00e4nke & Regale > Highboards",
        "link": "https://www.ostermann.de/highboard-now-easy/100134/moebel/schraenke-regale/highboards/980063/now-by-huelsta?sPartner=Googleshopping?&deeplink=100134",
        "image_link": "https://www.ostermann.de/media/image/43/f9/df/0100134-001_600x600.jpg",
        "additional_image_link": null,
        "condition": "new",
        "availability": "in stock",
        "price": "1317,00",
        "sale_price": "1069,00",
        "brand": "now! by h\u00fclsta",
        "gtin": null,
        "mpn": "980063",
        "adwords_grouping": "29",
        "custom_label_0": "29",
        "custom_label_1": "14",
        "custom_label_2": "31",
        "custom_label_3": "G",
        "custom_label_4": null,
        "color": "wei\u00df",
        "material": "Stoff",
        "energy_efficiency_class": null,
        "shipping_weight": "0,00",
        "shipping": null,
        "pubDate": "Wed, 25 Sep 2019 09:57:07 CEST"
    },
    {
        "id": "1515",
        "title": "Duschtuch mittelblau 70x140 Baumwolle blau CAW\u00d6 860-110 (BL 70x140 cm) Caw\u00f6 Frottier",
        "description": "Mit dem Duschtuch in Mittelblau von Caw\u00f6 Frottier erhalten Sie ein hochwertiges Handtuch. Optimal eignet flauschig weiche Baumwolltuch mit einer Gr\u00f6\u00dfe von 70 x 140 cm zum Abtrocknen nach dem Duschen oder Baden. Die dezente Farbgebung erm\u00f6glicht eine problemlose Integrierung in verschiedenste Stile in Ihren Badezimmer. Material: 100% Baumwolle Bei Fragen zum Produkt oder weiteren Konfigurationsw\u00fcnschen beraten wir Sie gerne pers\u00f6nlich montags bis freitags von 8:00 bis 20:00 Uhr unter oder Sie schreiben uns mithilfe des Formulars eine E-Mail. \n        ",
        "google_product_category": "M\u00f6bel",
        "product_type": "Accessoires > Heimtextilien > Frottierware",
        "link": "https://www.ostermann.de/duschtuch-mittelblau-70x140/100145/accessoires/heimtextilien/frottierware/860-110/cawoe-frottier?sPartner=Googleshopping?&deeplink=100145",
        "image_link": "https://www.ostermann.de/media/image/01/13/14/0100145-001_600x600.jpg",
        "additional_image_link": null,
        "condition": "new",
        "availability": "in stock",
        "price": "27,95",
        "sale_price": "19,90",
        "brand": "Caw\u00f6 Frottier",
        "gtin": "4056735061638",
        "mpn": "860-110",
        "adwords_grouping": "96",
        "custom_label_0": "96",
        "custom_label_1": "50",
        "custom_label_2": "88",
        "custom_label_3": "P",
        "custom_label_4": null,
        "color": "blau",
        "material": "Baumwolle",
        "energy_efficiency_class": null,
        "shipping_weight": "0,35",
        "shipping": null,
        "pubDate": "Wed, 25 Sep 2019 09:57:07 CEST"
    },
    {
        "id": "1616",
        "title": "Handtuch mittelblau 50x100 Baumwolle blau CAW\u00d6 860-110 (BL 50x100 cm) Caw\u00f6 Frottier",
        "description": "Mit dem Handtuch in Mittelblau von Caw\u00f6 Frottier erhalten Sie ein hochwertiges Handtuch. Optimal eignet flauschig weiche Baumwolltuch mit einer Gr\u00f6\u00dfe von 50 x 100 cm zum Abtrocknen von H\u00e4nden und Gesicht. Die dezente Farbgebung erm\u00f6glicht eine problemlose Integrierung in verschiedenste Stile in Ihren Badezimmer. Material: 100% Baumwolle Bei Fragen zum Produkt oder weiteren Konfigurationsw\u00fcnschen beraten wir Sie gerne pers\u00f6nlich montags bis freitags von 8:00 bis 20:00 Uhr unter oder Sie schreiben uns mithilfe des Formulars eine E-Mail. \n        ",
        "google_product_category": "M\u00f6bel",
        "product_type": "Accessoires > Heimtextilien > Frottierware",
        "link": "https://www.ostermann.de/handtuch-mittelblau-50x100/100146/accessoires/heimtextilien/frottierware/860-110/cawoe-frottier?sPartner=Googleshopping?&deeplink=100146",
        "image_link": "https://www.ostermann.de/media/image/01/22/37/0100146-001_600x600.jpg",
        "additional_image_link": null,
        "condition": "new",
        "availability": "in stock",
        "price": "11,95",
        "sale_price": "7,90",
        "brand": "Caw\u00f6 Frottier",
        "gtin": "4056735061614",
        "mpn": "860-110",
        "adwords_grouping": "96",
        "custom_label_0": "96",
        "custom_label_1": "50",
        "custom_label_2": "88",
        "custom_label_3": "P",
        "custom_label_4": null,
        "color": "blau",
        "material": "Baumwolle",
        "energy_efficiency_class": null,
        "shipping_weight": "0,23",
        "shipping": null,
        "pubDate": "Wed, 25 Sep 2019 09:57:07 CEST"
    },
    {
        "id": "1717",
        "title": "Duschtuch rose 70x140 Baumwolle rosa CAW\u00d6 860-272 (BL 70x140 cm) Caw\u00f6 Frottier",
        "description": "Mit dem Duschtuch in Rose von Caw\u00f6 Frottier erhalten Sie ein hochwertiges Handtuch. Optimal eignet flauschig weiche Baumwolltuch mit einer Gr\u00f6\u00dfe von 70 x 140 cm zum Abtrocknen nach dem Duschen oder Baden. Die dezente Farbgebung erm\u00f6glicht eine problemlose Integrierung in verschiedenste Stile in Ihren Badezimmer. Material: 100% Baumwolle Bei Fragen zum Produkt oder weiteren Konfigurationsw\u00fcnschen beraten wir Sie gerne pers\u00f6nlich montags bis freitags von 8:00 bis 20:00 Uhr unter oder Sie schreiben uns mithilfe des Formulars eine E-Mail. \n        ",
        "google_product_category": "M\u00f6bel",
        "product_type": "Accessoires > Heimtextilien > Frottierware",
        "link": "https://www.ostermann.de/duschtuch-rose-70x140/100147/accessoires/heimtextilien/frottierware/860-272/cawoe-frottier?sPartner=Googleshopping?&deeplink=100147",
        "image_link": "https://www.ostermann.de/media/image/68/57/4e/0100147-001_600x600.jpg",
        "additional_image_link": null,
        "condition": "new",
        "availability": "in stock",
        "price": "27,95",
        "sale_price": "12,00",
        "brand": "Caw\u00f6 Frottier",
        "gtin": "4056735061645",
        "mpn": "860-272",
        "adwords_grouping": "96",
        "custom_label_0": "96",
        "custom_label_1": "50",
        "custom_label_2": "23",
        "custom_label_3": "P",
        "custom_label_4": null,
        "color": "rosa",
        "material": "Baumwolle",
        "energy_efficiency_class": null,
        "shipping_weight": "0,35",
        "shipping": null,
        "pubDate": "Wed, 25 Sep 2019 09:57:07 CEST"
    },
    {
        "id": "1818",
        "title": "Polsterecke Mondo Egora Stoff gr\u00fcn MONDO Set bestehend aus: MONDO",
        "description": "Dessin: Gr. 15 Pivot mint 100% PES bestehend aus: Abschlu\u00dfelement 2,5 Sitzer 1 AT - 85 A incl. 2 x man. Wall-Free-Beschlag Recamiere AT re. abklappb. Seitent.-78 A 1 x R\u00fcckenkissen m . Rolle - 0808 95Y 2 x Kissen ca. 40x40 cm - 0813 93X Dessin: Gr. 30 Cloud espresso 2 x Spitzkissen ca. 49x49 cm - 0855 93X Sitz Superlastic soft Holzfu\u00df wildeiche 58-681 Bezugsmaterial: 100% Polyester Bei Fragen zum Produkt oder weiteren Konfigurationsw\u00fcnschen beraten wir Sie gerne pers\u00f6nlich montags bis freitags von 8:00 bis 20:00 Uhr unter 02302 985 6660 oder Sie schreiben uns mithilfe des Formulars eine E-Mail. \n        ",
        "google_product_category": "M\u00f6bel",
        "product_type": "M\u00f6bel > Polsterm\u00f6bel > Polsterecken",
        "link": "https://www.ostermann.de/polsterecke-mondo-egora/100162/moebel/polstermoebel/polsterecken/set-bestehend-aus/mondo?sPartner=Googleshopping?&deeplink=100162",
        "image_link": "https://www.ostermann.de/media/image/bc/81/5d/0100162-001_600x600.jpg",
        "additional_image_link": "https://www.ostermann.de/media/image/9e/63/87/0100162-004_600x600.jpg",
        "condition": "new",
        "availability": "in stock",
        "price": "5858,00",
        "sale_price": "4244,00",
        "brand": "MONDO",
        "gtin": null,
        "mpn": "Set bestehend aus:",
        "adwords_grouping": "20",
        "custom_label_0": "20",
        "custom_label_1": "12",
        "custom_label_2": "645",
        "custom_label_3": "G",
        "custom_label_4": null,
        "color": "gr\u00fcn",
        "material": "Stoff",
        "energy_efficiency_class": null,
        "shipping_weight": "0,00",
        "shipping": null,
        "pubDate": "Thu, 17 Oct 2019 10:02:30 CEST"
    },
    {
        "id": "1919",
        "title": "Lowboard now! Easy wei\u00df now! by h\u00fclsta Set bestehend aus: (BHT 128x44,8x44,8 cm) now! by h\u00fclsta",
        "description": "Das Lowboard NOW! Easy von Loft by Ostermann zeichnet sich durch ein schlichtes und ansprechendes Design aus. Der Korpus und die Front zeigen sich in reinwei\u00dfem Lack. Zudem kommt das Lowboard mit einem offenen Fach und einer Klappe mit Kabelf\u00fchrungsm\u00f6glichkeit in der R\u00fcckwand und der Abdeckplatte. Des Weiteren erhalten Sie einen H\u00e4ngebeschlag inklusive. Bei Fragen zum Produkt oder weiteren Konfigurationsw\u00fcnschen beraten wir Sie gerne pers\u00f6nlich montags bis freitags von 8:00 bis 20:00 Uhr unter 02302 985 6662 oder Sie schreiben uns mithilfe des Formulars eine E-Mail. \n        ",
        "google_product_category": "M\u00f6bel",
        "product_type": "M\u00f6bel > Schr\u00e4nke & Regale > Lowboards",
        "link": "https://www.ostermann.de/lowboard-now-easy/100168/moebel/schraenke-regale/lowboards/set-bestehend-aus/now-by-huelsta?sPartner=Googleshopping?&deeplink=100168",
        "image_link": "https://www.ostermann.de/media/image/34/1e/f8/0100168-001_600x600.jpg",
        "additional_image_link": null,
        "condition": "new",
        "availability": "in stock",
        "price": "490,00",
        "sale_price": "398,00",
        "brand": "now! by h\u00fclsta",
        "gtin": null,
        "mpn": "Set bestehend aus:",
        "adwords_grouping": "29",
        "custom_label_0": "29",
        "custom_label_1": "13",
        "custom_label_2": "31",
        "custom_label_3": "G",
        "custom_label_4": null,
        "color": "wei\u00df",
        "material": "Stoff",
        "energy_efficiency_class": null,
        "shipping_weight": "38,10",
        "shipping": null,
        "pubDate": "Wed, 25 Sep 2019 09:57:07 CEST"
    },
    {
        "id": "2020",
        "title": "Lowboard now! Easy wei\u00df now! by h\u00fclsta 43613 (BHT 128x44,8x44,8 cm) now! by h\u00fclsta",
        "description": "Das Lowboard NOW! Easy von Loft by Ostermann zeichnet sich durch ein schlichtes und ansprechendes Design aus. Der Korpus und die Front zeigen sich in reinwei\u00dfem Lack. Zudem kommt das Lowboard mit einem offenen Fach und einer Klappe mit Kabelf\u00fchrungsm\u00f6glichkeit in der R\u00fcckwand und der Abdeckplatte. Bei Fragen zum Produkt oder weiteren Konfigurationsw\u00fcnschen beraten wir Sie gerne pers\u00f6nlich montags bis freitags von 8:00 bis 20:00 Uhr unter 02302 985 6662 oder Sie schreiben uns mithilfe des Formulars eine E-Mail. \n        ",
        "google_product_category": "M\u00f6bel",
        "product_type": "M\u00f6bel > Schr\u00e4nke & Regale > Lowboards",
        "link": "https://www.ostermann.de/lowboard-now-easy/100170/moebel/schraenke-regale/lowboards/43613/now-by-huelsta?sPartner=Googleshopping?&deeplink=100170",
        "image_link": "https://www.ostermann.de/media/image/6b/e4/aa/0100170-001_600x600.jpg",
        "additional_image_link": null,
        "condition": "new",
        "availability": "in stock",
        "price": "504,00",
        "sale_price": "409,00",
        "brand": "now! by h\u00fclsta",
        "gtin": null,
        "mpn": "43613",
        "adwords_grouping": "29",
        "custom_label_0": "29",
        "custom_label_1": "13",
        "custom_label_2": "31",
        "custom_label_3": "G",
        "custom_label_4": null,
        "color": "wei\u00df",
        "material": "Stoff",
        "energy_efficiency_class": null,
        "shipping_weight": "38,10",
        "shipping": null,
        "pubDate": "Wed, 25 Sep 2019 09:57:07 CEST"
    }
]
